^C:\USERS\RYAN APPEL\DOCUMENTS\VISUAL STUDIO 2017\PROJECTS\ASSIGNMENT 3 - POINTERS\ASSIGNMENT 3 - POINTERS\MAIN.CPP
C:\USERS\RYAN APPEL\DOCUMENTS\VISUAL STUDIO 2017\PROJECTS\ASSIGNMENT 3 - POINTERS\ASSIGNMENT 3 - POINTERS\DEBUG\VC141.PDB
C:\USERS\RYAN APPEL\DOCUMENTS\VISUAL STUDIO 2017\PROJECTS\ASSIGNMENT 3 - POINTERS\ASSIGNMENT 3 - POINTERS\DEBUG\VC141.IDB
C:\USERS\RYAN APPEL\DOCUMENTS\VISUAL STUDIO 2017\PROJECTS\ASSIGNMENT 3 - POINTERS\ASSIGNMENT 3 - POINTERS\DEBUG\MAIN.OBJ
^C:\USERS\DLEPR\ONEDRIVE - FOX VALLEY TECHNICAL COLLEGE\FALL 2021\C++\DAJ.POINTERS\ASSIGNMENT-3-POINTERS\ASSIGNMENT 3 - POINTERS\ASSIGNMENT 3 - POINTERS\MAIN.CPP
C:\USERS\DLEPR\ONEDRIVE - FOX VALLEY TECHNICAL COLLEGE\FALL 2021\C++\DAJ.POINTERS\ASSIGNMENT-3-POINTERS\ASSIGNMENT 3 - POINTERS\ASSIGNMENT 3 - POINTERS\DEBUG\VC142.PDB
C:\USERS\DLEPR\ONEDRIVE - FOX VALLEY TECHNICAL COLLEGE\FALL 2021\C++\DAJ.POINTERS\ASSIGNMENT-3-POINTERS\ASSIGNMENT 3 - POINTERS\ASSIGNMENT 3 - POINTERS\DEBUG\VC142.IDB
C:\USERS\DLEPR\ONEDRIVE - FOX VALLEY TECHNICAL COLLEGE\FALL 2021\C++\DAJ.POINTERS\ASSIGNMENT-3-POINTERS\ASSIGNMENT 3 - POINTERS\ASSIGNMENT 3 - POINTERS\DEBUG\MAIN.OBJ
